---
http_interactions:
- request:
    method: get
    uri: https://api.pexels.com/v1/search?query=downtown%20denver,co
    body:
      encoding: US-ASCII
      string: ''
    headers:
      Authorization:
      - Bearer 563492ad6f917000010000015ce4638be3ca48c7ae1138757dcebc91
      User-Agent:
      - Faraday v1.4.1
      Accept-Encoding:
      - gzip;q=1.0,deflate;q=0.6,identity;q=0.3
      Accept:
      - "*/*"
  response:
    status:
      code: 200
      message: OK
    headers:
      Date:
      - Sat, 24 Apr 2021 19:35:53 GMT
      Content-Type:
      - application/json; charset=utf-8
      Content-Length:
      - '1816'
      Connection:
      - keep-alive
      Set-Cookie:
      - __cf_bm=1841666fc42298fef853c3f116b5c495bdbbe201-1619292953-1800-ASJUgNEW5pjSjrplxH7ZXmcGiYTQe9aF0yyxGUTZp9klM0nHlZ18YHN5ThbHyPaLVBfNX+tLzF8Qv373ei4NeAU=;
        path=/; expires=Sat, 24-Apr-21 20:05:53 GMT; domain=.pexels.com; HttpOnly;
        Secure; SameSite=None
      - __cf_bm=5e109e9d88a5ac578dca95abe74ead6fdf3267b7-1619291852-1800-AXU/R7Qk2N45T168EyGpaZQERRxUtm+h0/hCdbF0+PfjwsRwlTn3BOU3vBt8IdZmqs5Kf6o7o+Ih59pfZbpIDfs=;
        path=/; expires=Sat, 24-Apr-21 19:47:32 GMT; domain=.pexels.com; HttpOnly;
        Secure; SameSite=None
      - __cfduid=d13c0c718be7ed32361714501008dfaa51619291852; expires=Mon, 24-May-21
        19:17:32 GMT; path=/; domain=.pexels.com; HttpOnly; SameSite=Lax; Secure
      - __cfduid=dff57a8c5d93cba1bdc6d3c84460e497d1619292953; expires=Mon, 24-May-21
        19:35:53 GMT; path=/; domain=.pexels.com; HttpOnly; SameSite=Lax; Secure
      Alt-Svc:
      - h3-27=":443"; ma=86400, h3-28=":443"; ma=86400, h3-29=":443"; ma=86400
      Cache-Control:
      - max-age=0, private, must-revalidate
      Cf-Cache-Status:
      - DYNAMIC
      Cf-Request-Id:
      - '09a6fab3d4000030ce538ea000000001'
      Expect-Ct:
      - max-age=604800, report-uri="https://report-uri.cloudflare.com/cdn-cgi/beacon/expect-ct"
      Vary:
      - Origin
      X-Frame-Options:
      - ALLOWALL
      X-Ratelimit-Limit:
      - '20000'
      X-Ratelimit-Remaining:
      - '19991'
      X-Ratelimit-Reset:
      - '1621810738'
      X-Request-Id:
      - aef4d874-475f-4713-b67c-af4d1c3204ea
      X-Runtime:
      - '0.117796'
      X-Server:
      - master
      X-Tyk-Cached-Response:
      - '1'
      Server:
      - cloudflare
      Cf-Ray:
      - 6451c6ffbc5930ce-ORD
    body:
      encoding: ASCII-8BIT
      string: '{"page":1,"per_page":15,"photos":[{"id":3751010,"width":3712,"height":5568,"url":"https://www.pexels.com/photo/red-and-white-concrete-building-during-night-time-3751010/","photographer":"Colin
        Lloyd","photographer_url":"https://www.pexels.com/@colin-lloyd-2120291","photographer_id":2120291,"avg_color":"#5A4741","src":{"original":"https://images.pexels.com/photos/3751010/pexels-photo-3751010.jpeg","large2x":"https://images.pexels.com/photos/3751010/pexels-photo-3751010.jpeg?auto=compress\u0026cs=tinysrgb\u0026dpr=2\u0026h=650\u0026w=940","large":"https://images.pexels.com/photos/3751010/pexels-photo-3751010.jpeg?auto=compress\u0026cs=tinysrgb\u0026h=650\u0026w=940","medium":"https://images.pexels.com/photos/3751010/pexels-photo-3751010.jpeg?auto=compress\u0026cs=tinysrgb\u0026h=350","small":"https://images.pexels.com/photos/3751010/pexels-photo-3751010.jpeg?auto=compress\u0026cs=tinysrgb\u0026h=130","portrait":"https://images.pexels.com/photos/3751010/pexels-photo-3751010.jpeg?auto=compress\u0026cs=tinysrgb\u0026fit=crop\u0026h=1200\u0026w=800","landscape":"https://images.pexels.com/photos/3751010/pexels-photo-3751010.jpeg?auto=compress\u0026cs=tinysrgb\u0026fit=crop\u0026h=627\u0026w=1200","tiny":"https://images.pexels.com/photos/3751010/pexels-photo-3751010.jpeg?auto=compress\u0026cs=tinysrgb\u0026dpr=1\u0026fit=crop\u0026h=200\u0026w=280"}},{"id":3751009,"width":3322,"height":4983,"url":"https://www.pexels.com/photo/brown-concrete-building-during-night-time-3751009/","photographer":"Colin
        Lloyd","photographer_url":"https://www.pexels.com/@colin-lloyd-2120291","photographer_id":2120291,"avg_color":"#606966","src":{"original":"https://images.pexels.com/photos/3751009/pexels-photo-3751009.jpeg","large2x":"https://images.pexels.com/photos/3751009/pexels-photo-3751009.jpeg?auto=compress\u0026cs=tinysrgb\u0026dpr=2\u0026h=650\u0026w=940","large":"https://images.pexels.com/photos/3751009/pexels-photo-3751009.jpeg?auto=compress\u0026cs=tinysrgb\u0026h=650\u0026w=940","medium":"https://images.pexels.com/photos/3751009/pexels-photo-3751009.jpeg?auto=compress\u0026cs=tinysrgb\u0026h=350","small":"https://images.pexels.com/photos/3751009/pexels-photo-3751009.jpeg?auto=compress\u0026cs=tinysrgb\u0026h=130","portrait":"https://images.pexels.com/photos/3751009/pexels-photo-3751009.jpeg?auto=compress\u0026cs=tinysrgb\u0026fit=crop\u0026h=1200\u0026w=800","landscape":"https://images.pexels.com/photos/3751009/pexels-photo-3751009.jpeg?auto=compress\u0026cs=tinysrgb\u0026fit=crop\u0026h=627\u0026w=1200","tiny":"https://images.pexels.com/photos/3751009/pexels-photo-3751009.jpeg?auto=compress\u0026cs=tinysrgb\u0026dpr=1\u0026fit=crop\u0026h=200\u0026w=280"}},{"id":3751008,"width":3712,"height":5568,"url":"https://www.pexels.com/photo/people-walking-on-street-3751008/","photographer":"Colin
        Lloyd","photographer_url":"https://www.pexels.com/@colin-lloyd-2120291","photographer_id":2120291,"avg_color":"#595553","src":{"original":"https://images.pexels.com/photos/3751008/pexels-photo-3751008.jpeg","large2x":"https://images.pexels.com/photos/3751008/pexels-photo-3751008.jpeg?auto=compress\u0026cs=tinysrgb\u0026dpr=2\u0026h=650\u0026w=940","large":"https://images.pexels.com/photos/3751008/pexels-photo-3751008.jpeg?auto=compress\u0026cs=tinysrgb\u0026h=650\u0026w=940","medium":"https://images.pexels.com/photos/3751008/pexels-photo-3751008.jpeg?auto=compress\u0026cs=tinysrgb\u0026h=350","small":"https://images.pexels.com/photos/3751008/pexels-photo-3751008.jpeg?auto=compress\u0026cs=tinysrgb\u0026h=130","portrait":"https://images.pexels.com/photos/3751008/pexels-photo-3751008.jpeg?auto=compress\u0026cs=tinysrgb\u0026fit=crop\u0026h=1200\u0026w=800","landscape":"https://images.pexels.com/photos/3751008/pexels-photo-3751008.jpeg?auto=compress\u0026cs=tinysrgb\u0026fit=crop\u0026h=627\u0026w=1200","tiny":"https://images.pexels.com/photos/3751008/pexels-photo-3751008.jpeg?auto=compress\u0026cs=tinysrgb\u0026dpr=1\u0026fit=crop\u0026h=200\u0026w=280"}},{"id":2422861,"width":3448,"height":4592,"url":"https://www.pexels.com/photo/curtain-wall-high-rise-building-beside-transmission-tower-2422861/","photographer":"Aidan
        Roof","photographer_url":"https://www.pexels.com/@rozegold","photographer_id":1271136,"avg_color":"#989E9E","src":{"original":"https://images.pexels.com/photos/2422861/pexels-photo-2422861.png","large2x":"https://images.pexels.com/photos/2422861/pexels-photo-2422861.png?auto=compress\u0026cs=tinysrgb\u0026dpr=2\u0026h=650\u0026w=940","large":"https://images.pexels.com/photos/2422861/pexels-photo-2422861.png?auto=compress\u0026cs=tinysrgb\u0026h=650\u0026w=940","medium":"https://images.pexels.com/photos/2422861/pexels-photo-2422861.png?auto=compress\u0026cs=tinysrgb\u0026h=350","small":"https://images.pexels.com/photos/2422861/pexels-photo-2422861.png?auto=compress\u0026cs=tinysrgb\u0026h=130","portrait":"https://images.pexels.com/photos/2422861/pexels-photo-2422861.png?auto=compress\u0026cs=tinysrgb\u0026fit=crop\u0026h=1200\u0026w=800","landscape":"https://images.pexels.com/photos/2422861/pexels-photo-2422861.png?auto=compress\u0026cs=tinysrgb\u0026fit=crop\u0026h=627\u0026w=1200","tiny":"https://images.pexels.com/photos/2422861/pexels-photo-2422861.png?auto=compress\u0026cs=tinysrgb\u0026dpr=1\u0026fit=crop\u0026h=200\u0026w=280"}},{"id":2269617,"width":4000,"height":6000,"url":"https://www.pexels.com/photo/concrete-buildings-2269617/","photographer":"Spencer
        Selover","photographer_url":"https://www.pexels.com/@spencer-selover-142259","photographer_id":142259,"avg_color":"#564F4B","src":{"original":"https://images.pexels.com/photos/2269617/pexels-photo-2269617.jpeg","large2x":"https://images.pexels.com/photos/2269617/pexels-photo-2269617.jpeg?auto=compress\u0026cs=tinysrgb\u0026dpr=2\u0026h=650\u0026w=940","large":"https://images.pexels.com/photos/2269617/pexels-photo-2269617.jpeg?auto=compress\u0026cs=tinysrgb\u0026h=650\u0026w=940","medium":"https://images.pexels.com/photos/2269617/pexels-photo-2269617.jpeg?auto=compress\u0026cs=tinysrgb\u0026h=350","small":"https://images.pexels.com/photos/2269617/pexels-photo-2269617.jpeg?auto=compress\u0026cs=tinysrgb\u0026h=130","portrait":"https://images.pexels.com/photos/2269617/pexels-photo-2269617.jpeg?auto=compress\u0026cs=tinysrgb\u0026fit=crop\u0026h=1200\u0026w=800","landscape":"https://images.pexels.com/photos/2269617/pexels-photo-2269617.jpeg?auto=compress\u0026cs=tinysrgb\u0026fit=crop\u0026h=627\u0026w=1200","tiny":"https://images.pexels.com/photos/2269617/pexels-photo-2269617.jpeg?auto=compress\u0026cs=tinysrgb\u0026dpr=1\u0026fit=crop\u0026h=200\u0026w=280"}},{"id":7316921,"width":6000,"height":4000,"url":"https://www.pexels.com/photo/brown-concrete-buildings-near-trees-7316921/","photographer":"MART
        PRODUCTION","photographer_url":"https://www.pexels.com/@mart-production","photographer_id":30039676,"avg_color":"#97887D","src":{"original":"https://images.pexels.com/photos/7316921/pexels-photo-7316921.jpeg","large2x":"https://images.pexels.com/photos/7316921/pexels-photo-7316921.jpeg?auto=compress\u0026cs=tinysrgb\u0026dpr=2\u0026h=650\u0026w=940","large":"https://images.pexels.com/photos/7316921/pexels-photo-7316921.jpeg?auto=compress\u0026cs=tinysrgb\u0026h=650\u0026w=940","medium":"https://images.pexels.com/photos/7316921/pexels-photo-7316921.jpeg?auto=compress\u0026cs=tinysrgb\u0026h=350","small":"https://images.pexels.com/photos/7316921/pexels-photo-7316921.jpeg?auto=compress\u0026cs=tinysrgb\u0026h=130","portrait":"https://images.pexels.com/photos/7316921/pexels-photo-7316921.jpeg?auto=compress\u0026cs=tinysrgb\u0026fit=crop\u0026h=1200\u0026w=800","landscape":"https://images.pexels.com/photos/7316921/pexels-photo-7316921.jpeg?auto=compress\u0026cs=tinysrgb\u0026fit=crop\u0026h=627\u0026w=1200","tiny":"https://images.pexels.com/photos/7316921/pexels-photo-7316921.jpeg?auto=compress\u0026cs=tinysrgb\u0026dpr=1\u0026fit=crop\u0026h=200\u0026w=280"}},{"id":7316925,"width":5809,"height":3873,"url":"https://www.pexels.com/photo/brown-concrete-building-7316925/","photographer":"MART
        PRODUCTION","photographer_url":"https://www.pexels.com/@mart-production","photographer_id":30039676,"avg_color":"#95766B","src":{"original":"https://images.pexels.com/photos/7316925/pexels-photo-7316925.jpeg","large2x":"https://images.pexels.com/photos/7316925/pexels-photo-7316925.jpeg?auto=compress\u0026cs=tinysrgb\u0026dpr=2\u0026h=650\u0026w=940","large":"https://images.pexels.com/photos/7316925/pexels-photo-7316925.jpeg?auto=compress\u0026cs=tinysrgb\u0026h=650\u0026w=940","medium":"https://images.pexels.com/photos/7316925/pexels-photo-7316925.jpeg?auto=compress\u0026cs=tinysrgb\u0026h=350","small":"https://images.pexels.com/photos/7316925/pexels-photo-7316925.jpeg?auto=compress\u0026cs=tinysrgb\u0026h=130","portrait":"https://images.pexels.com/photos/7316925/pexels-photo-7316925.jpeg?auto=compress\u0026cs=tinysrgb\u0026fit=crop\u0026h=1200\u0026w=800","landscape":"https://images.pexels.com/photos/7316925/pexels-photo-7316925.jpeg?auto=compress\u0026cs=tinysrgb\u0026fit=crop\u0026h=627\u0026w=1200","tiny":"https://images.pexels.com/photos/7316925/pexels-photo-7316925.jpeg?auto=compress\u0026cs=tinysrgb\u0026dpr=1\u0026fit=crop\u0026h=200\u0026w=280"}},{"id":7316939,"width":5797,"height":3865,"url":"https://www.pexels.com/photo/building-exterior-with-different-designs-7316939/","photographer":"MART
        PRODUCTION","photographer_url":"https://www.pexels.com/@mart-production","photographer_id":30039676,"avg_color":"#645D5B","src":{"original":"https://images.pexels.com/photos/7316939/pexels-photo-7316939.jpeg","large2x":"https://images.pexels.com/photos/7316939/pexels-photo-7316939.jpeg?auto=compress\u0026cs=tinysrgb\u0026dpr=2\u0026h=650\u0026w=940","large":"https://images.pexels.com/photos/7316939/pexels-photo-7316939.jpeg?auto=compress\u0026cs=tinysrgb\u0026h=650\u0026w=940","medium":"https://images.pexels.com/photos/7316939/pexels-photo-7316939.jpeg?auto=compress\u0026cs=tinysrgb\u0026h=350","small":"https://images.pexels.com/photos/7316939/pexels-photo-7316939.jpeg?auto=compress\u0026cs=tinysrgb\u0026h=130","portrait":"https://images.pexels.com/photos/7316939/pexels-photo-7316939.jpeg?auto=compress\u0026cs=tinysrgb\u0026fit=crop\u0026h=1200\u0026w=800","landscape":"https://images.pexels.com/photos/7316939/pexels-photo-7316939.jpeg?auto=compress\u0026cs=tinysrgb\u0026fit=crop\u0026h=627\u0026w=1200","tiny":"https://images.pexels.com/photos/7316939/pexels-photo-7316939.jpeg?auto=compress\u0026cs=tinysrgb\u0026dpr=1\u0026fit=crop\u0026h=200\u0026w=280"}},{"id":7316940,"width":5914,"height":3943,"url":"https://www.pexels.com/photo/brown-building-with-arched-windows-7316940/","photographer":"MART
        PRODUCTION","photographer_url":"https://www.pexels.com/@mart-production","photographer_id":30039676,"avg_color":"#A29D9E","src":{"original":"https://images.pexels.com/photos/7316940/pexels-photo-7316940.jpeg","large2x":"https://images.pexels.com/photos/7316940/pexels-photo-7316940.jpeg?auto=compress\u0026cs=tinysrgb\u0026dpr=2\u0026h=650\u0026w=940","large":"https://images.pexels.com/photos/7316940/pexels-photo-7316940.jpeg?auto=compress\u0026cs=tinysrgb\u0026h=650\u0026w=940","medium":"https://images.pexels.com/photos/7316940/pexels-photo-7316940.jpeg?auto=compress\u0026cs=tinysrgb\u0026h=350","small":"https://images.pexels.com/photos/7316940/pexels-photo-7316940.jpeg?auto=compress\u0026cs=tinysrgb\u0026h=130","portrait":"https://images.pexels.com/photos/7316940/pexels-photo-7316940.jpeg?auto=compress\u0026cs=tinysrgb\u0026fit=crop\u0026h=1200\u0026w=800","landscape":"https://images.pexels.com/photos/7316940/pexels-photo-7316940.jpeg?auto=compress\u0026cs=tinysrgb\u0026fit=crop\u0026h=627\u0026w=1200","tiny":"https://images.pexels.com/photos/7316940/pexels-photo-7316940.jpeg?auto=compress\u0026cs=tinysrgb\u0026dpr=1\u0026fit=crop\u0026h=200\u0026w=280"}},{"id":7316948,"width":6000,"height":4000,"url":"https://www.pexels.com/photo/brown-building-with-arched-windows-7316948/","photographer":"MART
        PRODUCTION","photographer_url":"https://www.pexels.com/@mart-production","photographer_id":30039676,"avg_color":"#949AA3","src":{"original":"https://images.pexels.com/photos/7316948/pexels-photo-7316948.jpeg","large2x":"https://images.pexels.com/photos/7316948/pexels-photo-7316948.jpeg?auto=compress\u0026cs=tinysrgb\u0026dpr=2\u0026h=650\u0026w=940","large":"https://images.pexels.com/photos/7316948/pexels-photo-7316948.jpeg?auto=compress\u0026cs=tinysrgb\u0026h=650\u0026w=940","medium":"https://images.pexels.com/photos/7316948/pexels-photo-7316948.jpeg?auto=compress\u0026cs=tinysrgb\u0026h=350","small":"https://images.pexels.com/photos/7316948/pexels-photo-7316948.jpeg?auto=compress\u0026cs=tinysrgb\u0026h=130","portrait":"https://images.pexels.com/photos/7316948/pexels-photo-7316948.jpeg?auto=compress\u0026cs=tinysrgb\u0026fit=crop\u0026h=1200\u0026w=800","landscape":"https://images.pexels.com/photos/7316948/pexels-photo-7316948.jpeg?auto=compress\u0026cs=tinysrgb\u0026fit=crop\u0026h=627\u0026w=1200","tiny":"https://images.pexels.com/photos/7316948/pexels-photo-7316948.jpeg?auto=compress\u0026cs=tinysrgb\u0026dpr=1\u0026fit=crop\u0026h=200\u0026w=280"}},{"id":6635769,"width":3147,"height":4721,"url":"https://www.pexels.com/photo/snowy-street-with-road-and-vehicles-near-buildings-and-pavement-6635769/","photographer":"WENCHENG
        JIANG","photographer_url":"https://www.pexels.com/@wenchengphoto","photographer_id":22734895,"avg_color":"#818284","src":{"original":"https://images.pexels.com/photos/6635769/pexels-photo-6635769.jpeg","large2x":"https://images.pexels.com/photos/6635769/pexels-photo-6635769.jpeg?auto=compress\u0026cs=tinysrgb\u0026dpr=2\u0026h=650\u0026w=940","large":"https://images.pexels.com/photos/6635769/pexels-photo-6635769.jpeg?auto=compress\u0026cs=tinysrgb\u0026h=650\u0026w=940","medium":"https://images.pexels.com/photos/6635769/pexels-photo-6635769.jpeg?auto=compress\u0026cs=tinysrgb\u0026h=350","small":"https://images.pexels.com/photos/6635769/pexels-photo-6635769.jpeg?auto=compress\u0026cs=tinysrgb\u0026h=130","portrait":"https://images.pexels.com/photos/6635769/pexels-photo-6635769.jpeg?auto=compress\u0026cs=tinysrgb\u0026fit=crop\u0026h=1200\u0026w=800","landscape":"https://images.pexels.com/photos/6635769/pexels-photo-6635769.jpeg?auto=compress\u0026cs=tinysrgb\u0026fit=crop\u0026h=627\u0026w=1200","tiny":"https://images.pexels.com/photos/6635769/pexels-photo-6635769.jpeg?auto=compress\u0026cs=tinysrgb\u0026dpr=1\u0026fit=crop\u0026h=200\u0026w=280"}},{"id":7429467,"width":6000,"height":4000,"url":"https://www.pexels.com/photo/group-of-people-sitting-in-front-of-a-table-7429467/","photographer":"Ron
        Lach","photographer_url":"https://www.pexels.com/@ron-lach","photographer_id":22992178,"avg_color":"#9D9A93","src":{"original":"https://images.pexels.com/photos/7429467/pexels-photo-7429467.jpeg","large2x":"https://images.pexels.com/photos/7429467/pexels-photo-7429467.jpeg?auto=compress\u0026cs=tinysrgb\u0026dpr=2\u0026h=650\u0026w=940","large":"https://images.pexels.com/photos/7429467/pexels-photo-7429467.jpeg?auto=compress\u0026cs=tinysrgb\u0026h=650\u0026w=940","medium":"https://images.pexels.com/photos/7429467/pexels-photo-7429467.jpeg?auto=compress\u0026cs=tinysrgb\u0026h=350","small":"https://images.pexels.com/photos/7429467/pexels-photo-7429467.jpeg?auto=compress\u0026cs=tinysrgb\u0026h=130","portrait":"https://images.pexels.com/photos/7429467/pexels-photo-7429467.jpeg?auto=compress\u0026cs=tinysrgb\u0026fit=crop\u0026h=1200\u0026w=800","landscape":"https://images.pexels.com/photos/7429467/pexels-photo-7429467.jpeg?auto=compress\u0026cs=tinysrgb\u0026fit=crop\u0026h=627\u0026w=1200","tiny":"https://images.pexels.com/photos/7429467/pexels-photo-7429467.jpeg?auto=compress\u0026cs=tinysrgb\u0026dpr=1\u0026fit=crop\u0026h=200\u0026w=280"}},{"id":7429461,"width":5950,"height":3967,"url":"https://www.pexels.com/photo/people-in-a-meeting-7429461/","photographer":"Ron
        Lach","photographer_url":"https://www.pexels.com/@ron-lach","photographer_id":22992178,"avg_color":"#A2A49A","src":{"original":"https://images.pexels.com/photos/7429461/pexels-photo-7429461.jpeg","large2x":"https://images.pexels.com/photos/7429461/pexels-photo-7429461.jpeg?auto=compress\u0026cs=tinysrgb\u0026dpr=2\u0026h=650\u0026w=940","large":"https://images.pexels.com/photos/7429461/pexels-photo-7429461.jpeg?auto=compress\u0026cs=tinysrgb\u0026h=650\u0026w=940","medium":"https://images.pexels.com/photos/7429461/pexels-photo-7429461.jpeg?auto=compress\u0026cs=tinysrgb\u0026h=350","small":"https://images.pexels.com/photos/7429461/pexels-photo-7429461.jpeg?auto=compress\u0026cs=tinysrgb\u0026h=130","portrait":"https://images.pexels.com/photos/7429461/pexels-photo-7429461.jpeg?auto=compress\u0026cs=tinysrgb\u0026fit=crop\u0026h=1200\u0026w=800","landscape":"https://images.pexels.com/photos/7429461/pexels-photo-7429461.jpeg?auto=compress\u0026cs=tinysrgb\u0026fit=crop\u0026h=627\u0026w=1200","tiny":"https://images.pexels.com/photos/7429461/pexels-photo-7429461.jpeg?auto=compress\u0026cs=tinysrgb\u0026dpr=1\u0026fit=crop\u0026h=200\u0026w=280"}},{"id":7316994,"width":6000,"height":4000,"url":"https://www.pexels.com/photo/balcony-of-a-building-7316994/","photographer":"MART
        PRODUCTION","photographer_url":"https://www.pexels.com/@mart-production","photographer_id":30039676,"avg_color":"#726559","src":{"original":"https://images.pexels.com/photos/7316994/pexels-photo-7316994.jpeg","large2x":"https://images.pexels.com/photos/7316994/pexels-photo-7316994.jpeg?auto=compress\u0026cs=tinysrgb\u0026dpr=2\u0026h=650\u0026w=940","large":"https://images.pexels.com/photos/7316994/pexels-photo-7316994.jpeg?auto=compress\u0026cs=tinysrgb\u0026h=650\u0026w=940","medium":"https://images.pexels.com/photos/7316994/pexels-photo-7316994.jpeg?auto=compress\u0026cs=tinysrgb\u0026h=350","small":"https://images.pexels.com/photos/7316994/pexels-photo-7316994.jpeg?auto=compress\u0026cs=tinysrgb\u0026h=130","portrait":"https://images.pexels.com/photos/7316994/pexels-photo-7316994.jpeg?auto=compress\u0026cs=tinysrgb\u0026fit=crop\u0026h=1200\u0026w=800","landscape":"https://images.pexels.com/photos/7316994/pexels-photo-7316994.jpeg?auto=compress\u0026cs=tinysrgb\u0026fit=crop\u0026h=627\u0026w=1200","tiny":"https://images.pexels.com/photos/7316994/pexels-photo-7316994.jpeg?auto=compress\u0026cs=tinysrgb\u0026dpr=1\u0026fit=crop\u0026h=200\u0026w=280"}},{"id":7428212,"width":5638,"height":3759,"url":"https://www.pexels.com/photo/people-in-the-office-7428212/","photographer":"Ron
        Lach","photographer_url":"https://www.pexels.com/@ron-lach","photographer_id":22992178,"avg_color":"#9B9C93","src":{"original":"https://images.pexels.com/photos/7428212/pexels-photo-7428212.jpeg","large2x":"https://images.pexels.com/photos/7428212/pexels-photo-7428212.jpeg?auto=compress\u0026cs=tinysrgb\u0026dpr=2\u0026h=650\u0026w=940","large":"https://images.pexels.com/photos/7428212/pexels-photo-7428212.jpeg?auto=compress\u0026cs=tinysrgb\u0026h=650\u0026w=940","medium":"https://images.pexels.com/photos/7428212/pexels-photo-7428212.jpeg?auto=compress\u0026cs=tinysrgb\u0026h=350","small":"https://images.pexels.com/photos/7428212/pexels-photo-7428212.jpeg?auto=compress\u0026cs=tinysrgb\u0026h=130","portrait":"https://images.pexels.com/photos/7428212/pexels-photo-7428212.jpeg?auto=compress\u0026cs=tinysrgb\u0026fit=crop\u0026h=1200\u0026w=800","landscape":"https://images.pexels.com/photos/7428212/pexels-photo-7428212.jpeg?auto=compress\u0026cs=tinysrgb\u0026fit=crop\u0026h=627\u0026w=1200","tiny":"https://images.pexels.com/photos/7428212/pexels-photo-7428212.jpeg?auto=compress\u0026cs=tinysrgb\u0026dpr=1\u0026fit=crop\u0026h=200\u0026w=280"}}],"total_results":8000,"next_page":"https://api.pexels.com/v1/search/?page=2\u0026per_page=15\u0026query=downtown+denver%2Cco"}'
  recorded_at: Sat, 24 Apr 2021 19:35:53 GMT
recorded_with: VCR 6.0.0
