---
http_interactions:
- request:
    method: get
    uri: https://api.pexels.com/v1/search?query=downtown%20
    body:
      encoding: US-ASCII
      string: ''
    headers:
      Authorization:
      - Bearer 563492ad6f917000010000015ce4638be3ca48c7ae1138757dcebc91
      User-Agent:
      - Faraday v1.4.1
      Accept-Encoding:
      - gzip;q=1.0,deflate;q=0.6,identity;q=0.3
      Accept:
      - "*/*"
  response:
    status:
      code: 200
      message: OK
    headers:
      Date:
      - Tue, 27 Apr 2021 16:07:36 GMT
      Content-Type:
      - application/json; charset=utf-8
      Content-Length:
      - '1779'
      Connection:
      - keep-alive
      Set-Cookie:
      - __cf_bm=383ed97bc60108f327e28a6e901471ba6993438a-1619539655-1800-AU/dtsNqwhRr4tj5Qx7I1InCYf/RtueD8AieGSRkB3HBxpWTC4jV2tpDJWrOFggBeu/Q5Fr8ccNNGkGdP8aswvM=;
        path=/; expires=Tue, 27-Apr-21 16:37:35 GMT; domain=.pexels.com; HttpOnly;
        Secure; SameSite=None
      - __cf_bm=e0b301f81d7d620ce386ba37a6ff5ce28f9b5b5e-1619539656-1800-AXg5lDzEWqYU5QzjuiKDPQuUVNhZOCWsEN9ZSakSfXokiMco86kppVhO+9tcG/T7CcbrUaQwV9UeY6gNID8Lyz8=;
        path=/; expires=Tue, 27-Apr-21 16:37:36 GMT; domain=.pexels.com; HttpOnly;
        Secure; SameSite=None
      - __cfduid=d96ecefa09627106efec4dbef56a84f7e1619539655; expires=Thu, 27-May-21
        16:07:35 GMT; path=/; domain=.pexels.com; HttpOnly; SameSite=Lax; Secure
      - __cfduid=dbfb1b05710d81b72031cf5f601b5e5a21619539655; expires=Thu, 27-May-21
        16:07:35 GMT; path=/; domain=.pexels.com; HttpOnly; SameSite=Lax; Secure
      Alt-Svc:
      - h3-27=":443"; ma=86400, h3-28=":443"; ma=86400, h3-29=":443"; ma=86400
      Cache-Control:
      - max-age=0, private, must-revalidate
      Cf-Cache-Status:
      - DYNAMIC
      Cf-Request-Id:
      - '09b5af13a700003fa9d305b000000001'
      Expect-Ct:
      - max-age=604800, report-uri="https://report-uri.cloudflare.com/cdn-cgi/beacon/expect-ct"
      Vary:
      - Origin
      X-Frame-Options:
      - ALLOWALL
      X-Ratelimit-Limit:
      - '20000'
      X-Ratelimit-Remaining:
      - '19984'
      X-Ratelimit-Reset:
      - '1621810738'
      X-Request-Id:
      - a455f583-dc54-435b-bcb9-dee824a1e71b
      X-Runtime:
      - '0.080327'
      X-Server:
      - master
      Server:
      - cloudflare
      Cf-Ray:
      - 64694dff6e173fa9-ORD
    body:
      encoding: ASCII-8BIT
      string: '{"page":1,"per_page":15,"photos":[{"id":830891,"width":5158,"height":3434,"url":"https://www.pexels.com/photo/low-angle-photo-of-four-high-rise-curtain-wall-buildings-under-white-clouds-and-blue-sky-830891/","photographer":"Philipp
        Birmes","photographer_url":"https://www.pexels.com/@frankfurtpictures","photographer_id":278065,"avg_color":"#7E95AF","src":{"original":"https://images.pexels.com/photos/830891/pexels-photo-830891.jpeg","large2x":"https://images.pexels.com/photos/830891/pexels-photo-830891.jpeg?auto=compress\u0026cs=tinysrgb\u0026dpr=2\u0026h=650\u0026w=940","large":"https://images.pexels.com/photos/830891/pexels-photo-830891.jpeg?auto=compress\u0026cs=tinysrgb\u0026h=650\u0026w=940","medium":"https://images.pexels.com/photos/830891/pexels-photo-830891.jpeg?auto=compress\u0026cs=tinysrgb\u0026h=350","small":"https://images.pexels.com/photos/830891/pexels-photo-830891.jpeg?auto=compress\u0026cs=tinysrgb\u0026h=130","portrait":"https://images.pexels.com/photos/830891/pexels-photo-830891.jpeg?auto=compress\u0026cs=tinysrgb\u0026fit=crop\u0026h=1200\u0026w=800","landscape":"https://images.pexels.com/photos/830891/pexels-photo-830891.jpeg?auto=compress\u0026cs=tinysrgb\u0026fit=crop\u0026h=627\u0026w=1200","tiny":"https://images.pexels.com/photos/830891/pexels-photo-830891.jpeg?auto=compress\u0026cs=tinysrgb\u0026dpr=1\u0026fit=crop\u0026h=200\u0026w=280"}},{"id":6280698,"width":6000,"height":4000,"url":"https://www.pexels.com/photo/anonymous-ethnic-female-traveler-opening-door-of-cab-on-city-street-6280698/","photographer":"Uriel
        Mont","photographer_url":"https://www.pexels.com/@uriel-mont","photographer_id":6928101,"avg_color":"#727676","src":{"original":"https://images.pexels.com/photos/6280698/pexels-photo-6280698.jpeg","large2x":"https://images.pexels.com/photos/6280698/pexels-photo-6280698.jpeg?auto=compress\u0026cs=tinysrgb\u0026dpr=2\u0026h=650\u0026w=940","large":"https://images.pexels.com/photos/6280698/pexels-photo-6280698.jpeg?auto=compress\u0026cs=tinysrgb\u0026h=650\u0026w=940","medium":"https://images.pexels.com/photos/6280698/pexels-photo-6280698.jpeg?auto=compress\u0026cs=tinysrgb\u0026h=350","small":"https://images.pexels.com/photos/6280698/pexels-photo-6280698.jpeg?auto=compress\u0026cs=tinysrgb\u0026h=130","portrait":"https://images.pexels.com/photos/6280698/pexels-photo-6280698.jpeg?auto=compress\u0026cs=tinysrgb\u0026fit=crop\u0026h=1200\u0026w=800","landscape":"https://images.pexels.com/photos/6280698/pexels-photo-6280698.jpeg?auto=compress\u0026cs=tinysrgb\u0026fit=crop\u0026h=627\u0026w=1200","tiny":"https://images.pexels.com/photos/6280698/pexels-photo-6280698.jpeg?auto=compress\u0026cs=tinysrgb\u0026dpr=1\u0026fit=crop\u0026h=200\u0026w=280"}},{"id":6280693,"width":4000,"height":6000,"url":"https://www.pexels.com/photo/unrecognizable-ethnic-woman-in-mask-getting-into-cab-in-city-6280693/","photographer":"Uriel
        Mont","photographer_url":"https://www.pexels.com/@uriel-mont","photographer_id":6928101,"avg_color":"#85867F","src":{"original":"https://images.pexels.com/photos/6280693/pexels-photo-6280693.jpeg","large2x":"https://images.pexels.com/photos/6280693/pexels-photo-6280693.jpeg?auto=compress\u0026cs=tinysrgb\u0026dpr=2\u0026h=650\u0026w=940","large":"https://images.pexels.com/photos/6280693/pexels-photo-6280693.jpeg?auto=compress\u0026cs=tinysrgb\u0026h=650\u0026w=940","medium":"https://images.pexels.com/photos/6280693/pexels-photo-6280693.jpeg?auto=compress\u0026cs=tinysrgb\u0026h=350","small":"https://images.pexels.com/photos/6280693/pexels-photo-6280693.jpeg?auto=compress\u0026cs=tinysrgb\u0026h=130","portrait":"https://images.pexels.com/photos/6280693/pexels-photo-6280693.jpeg?auto=compress\u0026cs=tinysrgb\u0026fit=crop\u0026h=1200\u0026w=800","landscape":"https://images.pexels.com/photos/6280693/pexels-photo-6280693.jpeg?auto=compress\u0026cs=tinysrgb\u0026fit=crop\u0026h=627\u0026w=1200","tiny":"https://images.pexels.com/photos/6280693/pexels-photo-6280693.jpeg?auto=compress\u0026cs=tinysrgb\u0026dpr=1\u0026fit=crop\u0026h=200\u0026w=280"}},{"id":6280719,"width":6000,"height":4000,"url":"https://www.pexels.com/photo/black-female-with-phone-in-mask-near-cab-in-city-6280719/","photographer":"Uriel
        Mont","photographer_url":"https://www.pexels.com/@uriel-mont","photographer_id":6928101,"avg_color":"#9B9587","src":{"original":"https://images.pexels.com/photos/6280719/pexels-photo-6280719.jpeg","large2x":"https://images.pexels.com/photos/6280719/pexels-photo-6280719.jpeg?auto=compress\u0026cs=tinysrgb\u0026dpr=2\u0026h=650\u0026w=940","large":"https://images.pexels.com/photos/6280719/pexels-photo-6280719.jpeg?auto=compress\u0026cs=tinysrgb\u0026h=650\u0026w=940","medium":"https://images.pexels.com/photos/6280719/pexels-photo-6280719.jpeg?auto=compress\u0026cs=tinysrgb\u0026h=350","small":"https://images.pexels.com/photos/6280719/pexels-photo-6280719.jpeg?auto=compress\u0026cs=tinysrgb\u0026h=130","portrait":"https://images.pexels.com/photos/6280719/pexels-photo-6280719.jpeg?auto=compress\u0026cs=tinysrgb\u0026fit=crop\u0026h=1200\u0026w=800","landscape":"https://images.pexels.com/photos/6280719/pexels-photo-6280719.jpeg?auto=compress\u0026cs=tinysrgb\u0026fit=crop\u0026h=627\u0026w=1200","tiny":"https://images.pexels.com/photos/6280719/pexels-photo-6280719.jpeg?auto=compress\u0026cs=tinysrgb\u0026dpr=1\u0026fit=crop\u0026h=200\u0026w=280"}},{"id":6280732,"width":4000,"height":5790,"url":"https://www.pexels.com/photo/black-female-with-tablet-standing-on-city-street-on-sidewalk-6280732/","photographer":"Uriel
        Mont","photographer_url":"https://www.pexels.com/@uriel-mont","photographer_id":6928101,"avg_color":"#A0A1A4","src":{"original":"https://images.pexels.com/photos/6280732/pexels-photo-6280732.jpeg","large2x":"https://images.pexels.com/photos/6280732/pexels-photo-6280732.jpeg?auto=compress\u0026cs=tinysrgb\u0026dpr=2\u0026h=650\u0026w=940","large":"https://images.pexels.com/photos/6280732/pexels-photo-6280732.jpeg?auto=compress\u0026cs=tinysrgb\u0026h=650\u0026w=940","medium":"https://images.pexels.com/photos/6280732/pexels-photo-6280732.jpeg?auto=compress\u0026cs=tinysrgb\u0026h=350","small":"https://images.pexels.com/photos/6280732/pexels-photo-6280732.jpeg?auto=compress\u0026cs=tinysrgb\u0026h=130","portrait":"https://images.pexels.com/photos/6280732/pexels-photo-6280732.jpeg?auto=compress\u0026cs=tinysrgb\u0026fit=crop\u0026h=1200\u0026w=800","landscape":"https://images.pexels.com/photos/6280732/pexels-photo-6280732.jpeg?auto=compress\u0026cs=tinysrgb\u0026fit=crop\u0026h=627\u0026w=1200","tiny":"https://images.pexels.com/photos/6280732/pexels-photo-6280732.jpeg?auto=compress\u0026cs=tinysrgb\u0026dpr=1\u0026fit=crop\u0026h=200\u0026w=280"}},{"id":6280737,"width":6000,"height":4000,"url":"https://www.pexels.com/photo/african-american-woman-with-tablet-walking-on-city-street-6280737/","photographer":"Uriel
        Mont","photographer_url":"https://www.pexels.com/@uriel-mont","photographer_id":6928101,"avg_color":"#A7A7AB","src":{"original":"https://images.pexels.com/photos/6280737/pexels-photo-6280737.jpeg","large2x":"https://images.pexels.com/photos/6280737/pexels-photo-6280737.jpeg?auto=compress\u0026cs=tinysrgb\u0026dpr=2\u0026h=650\u0026w=940","large":"https://images.pexels.com/photos/6280737/pexels-photo-6280737.jpeg?auto=compress\u0026cs=tinysrgb\u0026h=650\u0026w=940","medium":"https://images.pexels.com/photos/6280737/pexels-photo-6280737.jpeg?auto=compress\u0026cs=tinysrgb\u0026h=350","small":"https://images.pexels.com/photos/6280737/pexels-photo-6280737.jpeg?auto=compress\u0026cs=tinysrgb\u0026h=130","portrait":"https://images.pexels.com/photos/6280737/pexels-photo-6280737.jpeg?auto=compress\u0026cs=tinysrgb\u0026fit=crop\u0026h=1200\u0026w=800","landscape":"https://images.pexels.com/photos/6280737/pexels-photo-6280737.jpeg?auto=compress\u0026cs=tinysrgb\u0026fit=crop\u0026h=627\u0026w=1200","tiny":"https://images.pexels.com/photos/6280737/pexels-photo-6280737.jpeg?auto=compress\u0026cs=tinysrgb\u0026dpr=1\u0026fit=crop\u0026h=200\u0026w=280"}},{"id":6280718,"width":4000,"height":6000,"url":"https://www.pexels.com/photo/faceless-ethnic-female-opening-door-of-cab-on-city-street-6280718/","photographer":"Uriel
        Mont","photographer_url":"https://www.pexels.com/@uriel-mont","photographer_id":6928101,"avg_color":"#706551","src":{"original":"https://images.pexels.com/photos/6280718/pexels-photo-6280718.jpeg","large2x":"https://images.pexels.com/photos/6280718/pexels-photo-6280718.jpeg?auto=compress\u0026cs=tinysrgb\u0026dpr=2\u0026h=650\u0026w=940","large":"https://images.pexels.com/photos/6280718/pexels-photo-6280718.jpeg?auto=compress\u0026cs=tinysrgb\u0026h=650\u0026w=940","medium":"https://images.pexels.com/photos/6280718/pexels-photo-6280718.jpeg?auto=compress\u0026cs=tinysrgb\u0026h=350","small":"https://images.pexels.com/photos/6280718/pexels-photo-6280718.jpeg?auto=compress\u0026cs=tinysrgb\u0026h=130","portrait":"https://images.pexels.com/photos/6280718/pexels-photo-6280718.jpeg?auto=compress\u0026cs=tinysrgb\u0026fit=crop\u0026h=1200\u0026w=800","landscape":"https://images.pexels.com/photos/6280718/pexels-photo-6280718.jpeg?auto=compress\u0026cs=tinysrgb\u0026fit=crop\u0026h=627\u0026w=1200","tiny":"https://images.pexels.com/photos/6280718/pexels-photo-6280718.jpeg?auto=compress\u0026cs=tinysrgb\u0026dpr=1\u0026fit=crop\u0026h=200\u0026w=280"}},{"id":7316852,"width":6000,"height":4000,"url":"https://www.pexels.com/photo/brown-concrete-building-7316852/","photographer":"MART
        PRODUCTION","photographer_url":"https://www.pexels.com/@mart-production","photographer_id":30039676,"avg_color":"#846E66","src":{"original":"https://images.pexels.com/photos/7316852/pexels-photo-7316852.jpeg","large2x":"https://images.pexels.com/photos/7316852/pexels-photo-7316852.jpeg?auto=compress\u0026cs=tinysrgb\u0026dpr=2\u0026h=650\u0026w=940","large":"https://images.pexels.com/photos/7316852/pexels-photo-7316852.jpeg?auto=compress\u0026cs=tinysrgb\u0026h=650\u0026w=940","medium":"https://images.pexels.com/photos/7316852/pexels-photo-7316852.jpeg?auto=compress\u0026cs=tinysrgb\u0026h=350","small":"https://images.pexels.com/photos/7316852/pexels-photo-7316852.jpeg?auto=compress\u0026cs=tinysrgb\u0026h=130","portrait":"https://images.pexels.com/photos/7316852/pexels-photo-7316852.jpeg?auto=compress\u0026cs=tinysrgb\u0026fit=crop\u0026h=1200\u0026w=800","landscape":"https://images.pexels.com/photos/7316852/pexels-photo-7316852.jpeg?auto=compress\u0026cs=tinysrgb\u0026fit=crop\u0026h=627\u0026w=1200","tiny":"https://images.pexels.com/photos/7316852/pexels-photo-7316852.jpeg?auto=compress\u0026cs=tinysrgb\u0026dpr=1\u0026fit=crop\u0026h=200\u0026w=280"}},{"id":7316860,"width":4000,"height":6000,"url":"https://www.pexels.com/photo/high-angle-view-of-an-escalator-in-a-building-7316860/","photographer":"MART
        PRODUCTION","photographer_url":"https://www.pexels.com/@mart-production","photographer_id":30039676,"avg_color":"#4C4139","src":{"original":"https://images.pexels.com/photos/7316860/pexels-photo-7316860.jpeg","large2x":"https://images.pexels.com/photos/7316860/pexels-photo-7316860.jpeg?auto=compress\u0026cs=tinysrgb\u0026dpr=2\u0026h=650\u0026w=940","large":"https://images.pexels.com/photos/7316860/pexels-photo-7316860.jpeg?auto=compress\u0026cs=tinysrgb\u0026h=650\u0026w=940","medium":"https://images.pexels.com/photos/7316860/pexels-photo-7316860.jpeg?auto=compress\u0026cs=tinysrgb\u0026h=350","small":"https://images.pexels.com/photos/7316860/pexels-photo-7316860.jpeg?auto=compress\u0026cs=tinysrgb\u0026h=130","portrait":"https://images.pexels.com/photos/7316860/pexels-photo-7316860.jpeg?auto=compress\u0026cs=tinysrgb\u0026fit=crop\u0026h=1200\u0026w=800","landscape":"https://images.pexels.com/photos/7316860/pexels-photo-7316860.jpeg?auto=compress\u0026cs=tinysrgb\u0026fit=crop\u0026h=627\u0026w=1200","tiny":"https://images.pexels.com/photos/7316860/pexels-photo-7316860.jpeg?auto=compress\u0026cs=tinysrgb\u0026dpr=1\u0026fit=crop\u0026h=200\u0026w=280"}},{"id":7316866,"width":6000,"height":4000,"url":"https://www.pexels.com/photo/commercial-building-with-glass-panels-on-roof-7316866/","photographer":"MART
        PRODUCTION","photographer_url":"https://www.pexels.com/@mart-production","photographer_id":30039676,"avg_color":"#8A8473","src":{"original":"https://images.pexels.com/photos/7316866/pexels-photo-7316866.jpeg","large2x":"https://images.pexels.com/photos/7316866/pexels-photo-7316866.jpeg?auto=compress\u0026cs=tinysrgb\u0026dpr=2\u0026h=650\u0026w=940","large":"https://images.pexels.com/photos/7316866/pexels-photo-7316866.jpeg?auto=compress\u0026cs=tinysrgb\u0026h=650\u0026w=940","medium":"https://images.pexels.com/photos/7316866/pexels-photo-7316866.jpeg?auto=compress\u0026cs=tinysrgb\u0026h=350","small":"https://images.pexels.com/photos/7316866/pexels-photo-7316866.jpeg?auto=compress\u0026cs=tinysrgb\u0026h=130","portrait":"https://images.pexels.com/photos/7316866/pexels-photo-7316866.jpeg?auto=compress\u0026cs=tinysrgb\u0026fit=crop\u0026h=1200\u0026w=800","landscape":"https://images.pexels.com/photos/7316866/pexels-photo-7316866.jpeg?auto=compress\u0026cs=tinysrgb\u0026fit=crop\u0026h=627\u0026w=1200","tiny":"https://images.pexels.com/photos/7316866/pexels-photo-7316866.jpeg?auto=compress\u0026cs=tinysrgb\u0026dpr=1\u0026fit=crop\u0026h=200\u0026w=280"}},{"id":7316858,"width":6000,"height":4000,"url":"https://www.pexels.com/photo/a-modern-commercial-building-7316858/","photographer":"MART
        PRODUCTION","photographer_url":"https://www.pexels.com/@mart-production","photographer_id":30039676,"avg_color":"#52402E","src":{"original":"https://images.pexels.com/photos/7316858/pexels-photo-7316858.jpeg","large2x":"https://images.pexels.com/photos/7316858/pexels-photo-7316858.jpeg?auto=compress\u0026cs=tinysrgb\u0026dpr=2\u0026h=650\u0026w=940","large":"https://images.pexels.com/photos/7316858/pexels-photo-7316858.jpeg?auto=compress\u0026cs=tinysrgb\u0026h=650\u0026w=940","medium":"https://images.pexels.com/photos/7316858/pexels-photo-7316858.jpeg?auto=compress\u0026cs=tinysrgb\u0026h=350","small":"https://images.pexels.com/photos/7316858/pexels-photo-7316858.jpeg?auto=compress\u0026cs=tinysrgb\u0026h=130","portrait":"https://images.pexels.com/photos/7316858/pexels-photo-7316858.jpeg?auto=compress\u0026cs=tinysrgb\u0026fit=crop\u0026h=1200\u0026w=800","landscape":"https://images.pexels.com/photos/7316858/pexels-photo-7316858.jpeg?auto=compress\u0026cs=tinysrgb\u0026fit=crop\u0026h=627\u0026w=1200","tiny":"https://images.pexels.com/photos/7316858/pexels-photo-7316858.jpeg?auto=compress\u0026cs=tinysrgb\u0026dpr=1\u0026fit=crop\u0026h=200\u0026w=280"}},{"id":1563256,"width":2642,"height":3419,"url":"https://www.pexels.com/photo/person-walking-on-the-road-1563256/","photographer":"Ricardo
        Esquivel","photographer_url":"https://www.pexels.com/@rickyrecap","photographer_id":722822,"avg_color":"#837E7F","src":{"original":"https://images.pexels.com/photos/1563256/pexels-photo-1563256.jpeg","large2x":"https://images.pexels.com/photos/1563256/pexels-photo-1563256.jpeg?auto=compress\u0026cs=tinysrgb\u0026dpr=2\u0026h=650\u0026w=940","large":"https://images.pexels.com/photos/1563256/pexels-photo-1563256.jpeg?auto=compress\u0026cs=tinysrgb\u0026h=650\u0026w=940","medium":"https://images.pexels.com/photos/1563256/pexels-photo-1563256.jpeg?auto=compress\u0026cs=tinysrgb\u0026h=350","small":"https://images.pexels.com/photos/1563256/pexels-photo-1563256.jpeg?auto=compress\u0026cs=tinysrgb\u0026h=130","portrait":"https://images.pexels.com/photos/1563256/pexels-photo-1563256.jpeg?auto=compress\u0026cs=tinysrgb\u0026fit=crop\u0026h=1200\u0026w=800","landscape":"https://images.pexels.com/photos/1563256/pexels-photo-1563256.jpeg?auto=compress\u0026cs=tinysrgb\u0026fit=crop\u0026h=627\u0026w=1200","tiny":"https://images.pexels.com/photos/1563256/pexels-photo-1563256.jpeg?auto=compress\u0026cs=tinysrgb\u0026dpr=1\u0026fit=crop\u0026h=200\u0026w=280"}},{"id":7316862,"width":6000,"height":4000,"url":"https://www.pexels.com/photo/escalator-inside-a-building-7316862/","photographer":"MART
        PRODUCTION","photographer_url":"https://www.pexels.com/@mart-production","photographer_id":30039676,"avg_color":"#473D34","src":{"original":"https://images.pexels.com/photos/7316862/pexels-photo-7316862.jpeg","large2x":"https://images.pexels.com/photos/7316862/pexels-photo-7316862.jpeg?auto=compress\u0026cs=tinysrgb\u0026dpr=2\u0026h=650\u0026w=940","large":"https://images.pexels.com/photos/7316862/pexels-photo-7316862.jpeg?auto=compress\u0026cs=tinysrgb\u0026h=650\u0026w=940","medium":"https://images.pexels.com/photos/7316862/pexels-photo-7316862.jpeg?auto=compress\u0026cs=tinysrgb\u0026h=350","small":"https://images.pexels.com/photos/7316862/pexels-photo-7316862.jpeg?auto=compress\u0026cs=tinysrgb\u0026h=130","portrait":"https://images.pexels.com/photos/7316862/pexels-photo-7316862.jpeg?auto=compress\u0026cs=tinysrgb\u0026fit=crop\u0026h=1200\u0026w=800","landscape":"https://images.pexels.com/photos/7316862/pexels-photo-7316862.jpeg?auto=compress\u0026cs=tinysrgb\u0026fit=crop\u0026h=627\u0026w=1200","tiny":"https://images.pexels.com/photos/7316862/pexels-photo-7316862.jpeg?auto=compress\u0026cs=tinysrgb\u0026dpr=1\u0026fit=crop\u0026h=200\u0026w=280"}},{"id":7316865,"width":6000,"height":4000,"url":"https://www.pexels.com/photo/low-angle-shot-of-a-brown-building-7316865/","photographer":"MART
        PRODUCTION","photographer_url":"https://www.pexels.com/@mart-production","photographer_id":30039676,"avg_color":"#7B7F7E","src":{"original":"https://images.pexels.com/photos/7316865/pexels-photo-7316865.jpeg","large2x":"https://images.pexels.com/photos/7316865/pexels-photo-7316865.jpeg?auto=compress\u0026cs=tinysrgb\u0026dpr=2\u0026h=650\u0026w=940","large":"https://images.pexels.com/photos/7316865/pexels-photo-7316865.jpeg?auto=compress\u0026cs=tinysrgb\u0026h=650\u0026w=940","medium":"https://images.pexels.com/photos/7316865/pexels-photo-7316865.jpeg?auto=compress\u0026cs=tinysrgb\u0026h=350","small":"https://images.pexels.com/photos/7316865/pexels-photo-7316865.jpeg?auto=compress\u0026cs=tinysrgb\u0026h=130","portrait":"https://images.pexels.com/photos/7316865/pexels-photo-7316865.jpeg?auto=compress\u0026cs=tinysrgb\u0026fit=crop\u0026h=1200\u0026w=800","landscape":"https://images.pexels.com/photos/7316865/pexels-photo-7316865.jpeg?auto=compress\u0026cs=tinysrgb\u0026fit=crop\u0026h=627\u0026w=1200","tiny":"https://images.pexels.com/photos/7316865/pexels-photo-7316865.jpeg?auto=compress\u0026cs=tinysrgb\u0026dpr=1\u0026fit=crop\u0026h=200\u0026w=280"}},{"id":7316867,"width":6000,"height":4000,"url":"https://www.pexels.com/photo/brown-buildings-with-glass-windows-7316867/","photographer":"MART
        PRODUCTION","photographer_url":"https://www.pexels.com/@mart-production","photographer_id":30039676,"avg_color":"#655849","src":{"original":"https://images.pexels.com/photos/7316867/pexels-photo-7316867.jpeg","large2x":"https://images.pexels.com/photos/7316867/pexels-photo-7316867.jpeg?auto=compress\u0026cs=tinysrgb\u0026dpr=2\u0026h=650\u0026w=940","large":"https://images.pexels.com/photos/7316867/pexels-photo-7316867.jpeg?auto=compress\u0026cs=tinysrgb\u0026h=650\u0026w=940","medium":"https://images.pexels.com/photos/7316867/pexels-photo-7316867.jpeg?auto=compress\u0026cs=tinysrgb\u0026h=350","small":"https://images.pexels.com/photos/7316867/pexels-photo-7316867.jpeg?auto=compress\u0026cs=tinysrgb\u0026h=130","portrait":"https://images.pexels.com/photos/7316867/pexels-photo-7316867.jpeg?auto=compress\u0026cs=tinysrgb\u0026fit=crop\u0026h=1200\u0026w=800","landscape":"https://images.pexels.com/photos/7316867/pexels-photo-7316867.jpeg?auto=compress\u0026cs=tinysrgb\u0026fit=crop\u0026h=627\u0026w=1200","tiny":"https://images.pexels.com/photos/7316867/pexels-photo-7316867.jpeg?auto=compress\u0026cs=tinysrgb\u0026dpr=1\u0026fit=crop\u0026h=200\u0026w=280"}}],"total_results":8000,"next_page":"https://api.pexels.com/v1/search/?page=2\u0026per_page=15\u0026query=downtown+"}'
  recorded_at: Tue, 27 Apr 2021 16:07:36 GMT
recorded_with: VCR 6.0.0
